{
  "appId": "io.ionic.jldropoff",
  "appName": "jldropoff",
  "bundledWebRuntime": false,
  "npmClient": "npm",
  "webDir": "www",
  "linuxAndroidStudioPath": "/home/clara/android-studio/bin/studio.sh",
  "plugins": {
    "SplashScreen": {
      "launchShowDuration": 0
    }
  },
  "cordova": {}
}
